<svg width="28" height="28" viewBox="0 0 28 28" fill="none" xmlns="http://www.w3.org/2000/svg">
<path d="M13.3106 13.9764L16.7566 10.5305C16.9379 10.3481 17.0396 10.1014 17.0396 9.84421C17.0396 9.58704 16.9379 9.34032 16.7566 9.15794C16.6661 9.0667 16.5584 8.99428 16.4398 8.94486C16.3212 8.89544 16.1939 8.87 16.0654 8.87C15.9369 8.87 15.8097 8.89544 15.6911 8.94486C15.5724 8.99428 15.4648 9.0667 15.3743 9.15794L11.2469 13.2853C11.1557 13.3758 11.0833 13.4835 11.0338 13.6021C10.9844 13.7207 10.959 13.8479 10.959 13.9764C10.959 14.1049 10.9844 14.2322 11.0338 14.3508C11.0833 14.4694 11.1557 14.5771 11.2469 14.6676L15.3743 18.8436C15.4652 18.9338 15.5731 19.0052 15.6917 19.0537C15.8103 19.1021 15.9373 19.1267 16.0654 19.1259C16.1935 19.1267 16.3205 19.1021 16.4391 19.0537C16.5577 19.0052 16.6656 18.9338 16.7566 18.8436C16.9379 18.6612 17.0396 18.4145 17.0396 18.1573C17.0396 17.9002 16.9379 17.6535 16.7566 17.4711L13.3106 13.9764Z" fill="white"/>
</svg>
