<svg width="14" height="11" viewBox="0 0 14 11" fill="none" xmlns="http://www.w3.org/2000/svg">
<path fill-rule="evenodd" clip-rule="evenodd" d="M4.8094 10.2159L0.672849 5.77359C0.442384 5.52918 0.442384 5.13136 0.672849 4.88434L1.50843 3.9964C1.7389 3.75199 2.11355 3.75199 2.34402 3.9964L5.22778 7.10616L11.656 0.183309C11.8864 -0.061103 12.2611 -0.061103 12.4916 0.183309L13.3272 1.07255C13.5576 1.31697 13.5576 1.71609 13.3272 1.9592L5.64498 10.2159C5.41452 10.4603 5.03987 10.4603 4.8094 10.2159Z" fill="white"/>
</svg>
