<svg width="48" height="48" viewBox="0 0 48 48" fill="none" xmlns="http://www.w3.org/2000/svg">
<circle cx="24" cy="24" r="23.5" fill="#303030" fill-opacity="0.3" stroke="white"/>
<path d="M23.1716 31.7881C23.282 31.8937 23.4121 31.9766 23.5546 32.0318C23.6935 32.0932 23.8438 32.1249 23.9957 32.1249C24.1476 32.1249 24.2978 32.0932 24.4367 32.0318C24.5792 31.9766 24.7094 31.8937 24.8198 31.7881L29.4625 27.1453C29.6811 26.9267 29.8039 26.6303 29.8039 26.3212C29.8039 26.0121 29.6811 25.7157 29.4625 25.4971C29.244 25.2786 28.9475 25.1558 28.6384 25.1558C28.3293 25.1558 28.0329 25.2786 27.8143 25.4971L25.1564 28.1667V17.0357C25.1564 16.7279 25.0341 16.4326 24.8164 16.215C24.5987 15.9973 24.3035 15.875 23.9957 15.875C23.6878 15.875 23.3926 15.9973 23.1749 16.215C22.9573 16.4326 22.835 16.7279 22.835 17.0357V28.1667L20.177 25.4971C20.0688 25.3889 19.9403 25.3031 19.7989 25.2445C19.6575 25.1859 19.506 25.1558 19.3529 25.1558C19.1999 25.1558 19.0483 25.1859 18.9069 25.2445C18.7655 25.3031 18.637 25.3889 18.5288 25.4971C18.4206 25.6053 18.3348 25.7338 18.2762 25.8752C18.2176 26.0166 18.1875 26.1682 18.1875 26.3212C18.1875 26.4743 18.2176 26.6258 18.2762 26.7672C18.3348 26.9086 18.4206 27.0371 18.5288 27.1453L23.1716 31.7881Z" fill="white"/>
</svg>
