<svg width="48" height="42" viewBox="0 0 48 42" fill="none" xmlns="http://www.w3.org/2000/svg">
<path d="M41.899 2.69595C35.7139 -1.52118 28.0762 0.446818 23.9528 5.27309C19.8294 0.446818 12.1917 -1.5446 6.00657 2.69595C2.72658 4.94509 0.664871 8.7405 0.5243 12.7468C0.196301 21.837 8.2557 29.1233 20.5557 40.2987L20.7899 40.5095C22.5705 42.1261 25.3116 42.1261 27.0922 40.4861L27.3499 40.2518C39.6499 29.0999 47.6859 21.8136 47.3813 12.7233C47.2407 8.7405 45.179 4.94509 41.899 2.69595ZM24.1871 36.8078L23.9528 37.0421L23.7185 36.8078C12.5665 26.7102 5.21 20.033 5.21 13.2622C5.21 8.5765 8.72427 5.06223 13.41 5.06223C17.018 5.06223 20.5322 7.38165 21.7739 10.5914H26.1551C27.3734 7.38165 30.8876 5.06223 34.4956 5.06223C39.1813 5.06223 42.6956 8.5765 42.6956 13.2622C42.6956 20.033 35.339 26.7102 24.1871 36.8078Z" fill="#FF453A"/>
</svg>
