<svg width="20" height="20" viewBox="0 0 20 20" fill="none" xmlns="http://www.w3.org/2000/svg">
<path d="M16.2997 3.89865C14.238 2.49294 11.6921 3.14894 10.3176 4.7577C8.94313 3.14894 6.39723 2.48513 4.33552 3.89865C3.24219 4.64836 2.55496 5.9135 2.5081 7.24893C2.39877 10.279 5.08523 12.7078 9.18522 16.4329L9.26331 16.5032C9.85684 17.042 10.7705 17.042 11.3641 16.4954L11.45 16.4173C15.55 12.7 18.2286 10.2712 18.1271 7.24112C18.0802 5.9135 17.393 4.64836 16.2997 3.89865ZM10.3957 15.2693L10.3176 15.3474L10.2395 15.2693C6.52218 11.9034 4.07 9.67768 4.07 7.42073C4.07 5.85884 5.24142 4.68741 6.80332 4.68741C8.00599 4.68741 9.17741 5.46055 9.59131 6.53045H11.0517C11.4578 5.46055 12.6292 4.68741 13.8319 4.68741C15.3938 4.68741 16.5652 5.85884 16.5652 7.42073C16.5652 9.67768 14.113 11.9034 10.3957 15.2693Z" fill="#FF453A"/>
</svg>
