<svg width="14" height="8" viewBox="0 0 14 8" fill="none" xmlns="http://www.w3.org/2000/svg">
<path d="M4.33594 3.99935C4.33594 4.17616 4.40618 4.34573 4.5312 4.47075C4.65622 4.59578 4.82579 4.66602 5.0026 4.66602H9.0026C9.17941 4.66602 9.34898 4.59578 9.47401 4.47075C9.59903 4.34573 9.66927 4.17616 9.66927 3.99935C9.66927 3.82254 9.59903 3.65297 9.47401 3.52794C9.34898 3.40292 9.17941 3.33268 9.0026 3.33268H5.0026C4.82579 3.33268 4.65622 3.40292 4.5312 3.52794C4.40618 3.65297 4.33594 3.82254 4.33594 3.99935ZM5.66927 5.99935H3.66927C3.13884 5.99935 2.63013 5.78864 2.25506 5.41356C1.87998 5.03849 1.66927 4.52978 1.66927 3.99935C1.66927 3.46892 1.87998 2.96021 2.25506 2.58513C2.63013 2.21006 3.13884 1.99935 3.66927 1.99935H5.66927C5.84608 1.99935 6.01565 1.92911 6.14068 1.80409C6.2657 1.67906 6.33594 1.50949 6.33594 1.33268C6.33594 1.15587 6.2657 0.986302 6.14068 0.861278C6.01565 0.736254 5.84608 0.666016 5.66927 0.666016H3.66927C2.78522 0.666016 1.93737 1.01721 1.31225 1.64233C0.687127 2.26745 0.335938 3.11529 0.335938 3.99935C0.335938 4.8834 0.687127 5.73125 1.31225 6.35637C1.93737 6.98149 2.78522 7.33268 3.66927 7.33268H5.66927C5.84608 7.33268 6.01565 7.26244 6.14068 7.13742C6.2657 7.0124 6.33594 6.84283 6.33594 6.66602C6.33594 6.4892 6.2657 6.31963 6.14068 6.19461C6.01565 6.06959 5.84608 5.99935 5.66927 5.99935ZM10.3359 0.666016H8.33594C8.15913 0.666016 7.98956 0.736254 7.86453 0.861278C7.73951 0.986302 7.66927 1.15587 7.66927 1.33268C7.66927 1.50949 7.73951 1.67906 7.86453 1.80409C7.98956 1.92911 8.15913 1.99935 8.33594 1.99935H10.3359C10.8664 1.99935 11.3751 2.21006 11.7502 2.58513C12.1252 2.96021 12.3359 3.46892 12.3359 3.99935C12.3359 4.52978 12.1252 5.03849 11.7502 5.41356C11.3751 5.78864 10.8664 5.99935 10.3359 5.99935H8.33594C8.15913 5.99935 7.98956 6.06959 7.86453 6.19461C7.73951 6.31963 7.66927 6.4892 7.66927 6.66602C7.66927 6.84283 7.73951 7.0124 7.86453 7.13742C7.98956 7.26244 8.15913 7.33268 8.33594 7.33268H10.3359C11.22 7.33268 12.0678 6.98149 12.693 6.35637C13.3181 5.73125 13.6693 4.8834 13.6693 3.99935C13.6693 3.11529 13.3181 2.26745 12.693 1.64233C12.0678 1.01721 11.22 0.666016 10.3359 0.666016Z" fill="white"/>
</svg>
