<svg width="48" height="48" viewBox="0 0 48 48" fill="none" xmlns="http://www.w3.org/2000/svg">
<circle cx="24" cy="24" r="23.5" fill="#303030" fill-opacity="0.3" stroke="white"/>
<path d="M28.6874 20.7188H27.9061V19.1563C27.9061 17 26.1561 15.25 23.9999 15.25C21.8437 15.25 20.0937 17 20.0937 19.1563V20.7188H19.3125C18.4531 20.7188 17.75 21.4219 17.75 22.2813V30.0938C17.75 30.9531 18.4531 31.6563 19.3125 31.6563H28.6874C29.5467 31.6563 30.2498 30.9531 30.2498 30.0938V22.2813C30.2498 21.4219 29.5467 20.7188 28.6874 20.7188ZM23.9999 27.75C23.1405 27.75 22.4374 27.0469 22.4374 26.1875C22.4374 25.3281 23.1405 24.625 23.9999 24.625C24.8593 24.625 25.5624 25.3281 25.5624 26.1875C25.5624 27.0469 24.8593 27.75 23.9999 27.75ZM21.6562 20.7188V19.1563C21.6562 17.8594 22.703 16.8125 23.9999 16.8125C25.2968 16.8125 26.3436 17.8594 26.3436 19.1563V20.7188H21.6562Z" fill="#27AE60"/>
</svg>
