<svg width="36" height="36" viewBox="0 0 36 36" fill="none" xmlns="http://www.w3.org/2000/svg">
<path d="M25.4375 17.698C23.923 14.1817 21.0741 12 18.0002 12C14.9263 12 12.0773 14.1817 10.5628 17.698C10.5216 17.7926 10.5002 17.8947 10.5002 17.9979C10.5002 18.1011 10.5216 18.2032 10.5628 18.2978C12.0773 21.8141 14.9263 23.9958 18.0002 23.9958C21.0741 23.9958 23.923 21.8141 25.4375 18.2978C25.4788 18.2032 25.5001 18.1011 25.5001 17.9979C25.5001 17.8947 25.4788 17.7926 25.4375 17.698ZM18.0002 22.4963C15.6235 22.4963 13.3743 20.7794 12.0773 17.9979C13.3743 15.2164 15.6235 13.4995 18.0002 13.4995C20.3768 13.4995 22.626 15.2164 23.923 17.9979C22.626 20.7794 20.3768 22.4963 18.0002 22.4963ZM18.0002 14.999C17.407 14.999 16.8272 15.1748 16.3341 15.5044C15.8409 15.8339 15.4565 16.3023 15.2295 16.8503C15.0025 17.3982 14.9432 18.0012 15.0589 18.583C15.1746 19.1647 15.4602 19.6991 15.8796 20.1185C16.299 20.5379 16.8334 20.8235 17.4151 20.9392C17.9968 21.055 18.5998 20.9956 19.1478 20.7686C19.6958 20.5416 20.1642 20.1572 20.4937 19.664C20.8232 19.1709 20.9991 18.591 20.9991 17.9979C20.9991 17.2025 20.6831 16.4397 20.1207 15.8773C19.5583 15.3149 18.7955 14.999 18.0002 14.999ZM18.0002 19.4974C17.7036 19.4974 17.4137 19.4094 17.1671 19.2447C16.9205 19.0799 16.7283 18.8457 16.6148 18.5717C16.5014 18.2977 16.4717 17.9962 16.5295 17.7054C16.5874 17.4145 16.7302 17.1473 16.9399 16.9376C17.1496 16.7279 17.4168 16.5851 17.7076 16.5272C17.9985 16.4694 18.3 16.4991 18.574 16.6126C18.848 16.7261 19.0822 16.9183 19.2469 17.1648C19.4117 17.4114 19.4996 17.7013 19.4996 17.9979C19.4996 18.3956 19.3417 18.777 19.0604 19.0582C18.7792 19.3394 18.3979 19.4974 18.0002 19.4974Z" fill="white"/>
</svg>
